{
  "tasks": [
    {
      "id": 1,
      "action": "Estimate",
      "priority": 3,
      "estHours": 8
    },
    {
      "id": 2,
      "action": "Create",
      "priority": 2,
      "estHours": 8
    }
  ]
}